{
  "annotations": {
    "list": [
      {
        "builtIn": 1,
        "datasource": {
          "type": "grafana",
          "uid": "-- Grafana --"
        },
        "enable": true,
        "hide": true,
        "iconColor": "rgba(0, 211, 255, 1)",
        "name": "Annotations & Alerts",
        "target": {
          "limit": 100,
          "matchAny": false,
          "tags": [],
          "type": "dashboard"
        },
        "type": "dashboard"
      }
    ]
  },
  "editable": true,
  "fiscalYearStartMonth": 0,
  "graphTooltip": 0,
  "links": [],
  "liveNow": false,
  "panels": [
    {
      "datasource": {
        "type": "influxdb",
        "uid": "P951FEA4DE68E13C5"
      },
      "gridPos": {
        "h": 2,
        "w": 1,
        "x": 1,
        "y": 0
      },
      "id": 6,
      "options": {
        "content": "<img src=\"https://www.jiffylubesocal.com/wp-content/uploads/2016/10/gas-dash-light.jpg\" alt=\"fuel_icon\" width=\"200\"/>\n",
        "mode": "html"
      },
      "pluginVersion": "9.1.8",
      "transparent": true,
      "type": "text"
    },
    {
      "datasource": {
        "type": "influxdb",
        "uid": "P951FEA4DE68E13C5"
      },
      "fieldConfig": {
        "defaults": {
          "color": {
            "mode": "thresholds"
          },
          "displayName": "Vitesse",
          "mappings": [],
          "max": 255,
          "thresholds": {
            "mode": "percentage",
            "steps": [
              {
                "color": "super-light-blue",
                "value": null
              },
              {
                "color": "super-light-blue",
                "value": 0
              },
              {
                "color": "light-blue",
                "value": 20
              },
              {
                "color": "blue",
                "value": 40
              },
              {
                "color": "semi-dark-blue",
                "value": 60
              },
              {
                "color": "dark-blue",
                "value": 80
              }
            ]
          },
          "unit": "velocitykmh"
        },
        "overrides": []
      },
      "gridPos": {
        "h": 11,
        "w": 15,
        "x": 3,
        "y": 0
      },
      "id": 3,
      "options": {
        "orientation": "auto",
        "reduceOptions": {
          "calcs": [
            "lastNotNull"
          ],
          "fields": "",
          "values": false
        },
        "showThresholdLabels": false,
        "showThresholdMarkers": true
      },
      "pluginVersion": "9.1.8",
      "targets": [
        {
          "datasource": {
            "type": "influxdb",
            "uid": "P951FEA4DE68E13C5"
          },
          "groupBy": [],
          "limit": "1",
          "measurement": "mqtt_consumer",
          "orderByTime": "ASC",
          "policy": "default",
          "refId": "A",
          "resultFormat": "time_series",
          "select": [
            [
              {
                "params": [
                  "speed"
                ],
                "type": "field"
              }
            ]
          ],
          "tags": []
        }
      ],
      "transparent": true,
      "type": "gauge"
    },
    {
      "datasource": {
        "type": "influxdb",
        "uid": "P951FEA4DE68E13C5"
      },
      "fieldConfig": {
        "defaults": {
          "color": {
            "mode": "thresholds"
          },
          "mappings": [],
          "thresholds": {
            "mode": "absolute",
            "steps": [
              {
                "color": "green",
                "value": null
              },
              {
                "color": "red",
                "value": 80
              }
            ]
          },
          "unit": "km"
        },
        "overrides": []
      },
      "gridPos": {
        "h": 3,
        "w": 6,
        "x": 18,
        "y": 0
      },
      "id": 22,
      "options": {
        "colorMode": "none",
        "graphMode": "none",
        "justifyMode": "auto",
        "orientation": "auto",
        "reduceOptions": {
          "calcs": [
            "lastNotNull"
          ],
          "fields": "",
          "values": false
        },
        "textMode": "value"
      },
      "pluginVersion": "9.1.8",
      "targets": [
        {
          "datasource": {
            "type": "influxdb",
            "uid": "P951FEA4DE68E13C5"
          },
          "groupBy": [],
          "limit": "1",
          "measurement": "mqtt_consumer",
          "orderByTime": "ASC",
          "policy": "default",
          "refId": "A",
          "resultFormat": "time_series",
          "select": [
            [
              {
                "params": [
                  "km"
                ],
                "type": "field"
              }
            ]
          ],
          "tags": []
        }
      ],
      "type": "stat"
    },
    {
      "datasource": {
        "type": "influxdb",
        "uid": "P951FEA4DE68E13C5"
      },
      "fieldConfig": {
        "defaults": {
          "color": {
            "mode": "thresholds"
          },
          "displayName": "Fuel",
          "mappings": [],
          "max": 100,
          "thresholds": {
            "mode": "absolute",
            "steps": [
              {
                "color": "red",
                "value": null
              },
              {
                "color": "orange",
                "value": 25
              },
              {
                "color": "super-light-yellow",
                "value": 50
              },
              {
                "color": "green",
                "value": 75
              }
            ]
          },
          "unit": "percent"
        },
        "overrides": []
      },
      "gridPos": {
        "h": 9,
        "w": 3,
        "x": 0,
        "y": 2
      },
      "id": 4,
      "options": {
        "displayMode": "basic",
        "minVizHeight": 10,
        "minVizWidth": 10,
        "orientation": "vertical",
        "reduceOptions": {
          "calcs": [
            "last"
          ],
          "fields": "",
          "values": false
        },
        "showUnfilled": true
      },
      "pluginVersion": "9.1.8",
      "targets": [
        {
          "datasource": {
            "type": "influxdb",
            "uid": "P951FEA4DE68E13C5"
          },
          "groupBy": [],
          "limit": "1",
          "measurement": "mqtt_consumer",
          "orderByTime": "ASC",
          "policy": "default",
          "refId": "A",
          "resultFormat": "time_series",
          "select": [
            [
              {
                "params": [
                  "fuel"
                ],
                "type": "field"
              }
            ]
          ],
          "tags": []
        }
      ],
      "title": "Fuel",
      "transparent": true,
      "type": "bargauge"
    },
    {
      "datasource": {
        "type": "influxdb",
        "uid": "P951FEA4DE68E13C5"
      },
      "fieldConfig": {
        "defaults": {
          "color": {
            "mode": "thresholds"
          },
          "displayName": "Tours moteur",
          "mappings": [],
          "max": 6000,
          "thresholds": {
            "mode": "percentage",
            "steps": [
              {
                "color": "green",
                "value": null
              },
              {
                "color": "green",
                "value": 0
              },
              {
                "color": "yellow",
                "value": 40
              },
              {
                "color": "orange",
                "value": 60
              },
              {
                "color": "red",
                "value": 80
              }
            ]
          },
          "unit": "t/min"
        },
        "overrides": []
      },
      "gridPos": {
        "h": 7,
        "w": 6,
        "x": 18,
        "y": 3
      },
      "id": 2,
      "options": {
        "orientation": "auto",
        "reduceOptions": {
          "calcs": [
            "lastNotNull"
          ],
          "fields": "",
          "values": false
        },
        "showThresholdLabels": false,
        "showThresholdMarkers": true
      },
      "pluginVersion": "9.1.8",
      "targets": [
        {
          "datasource": {
            "type": "influxdb",
            "uid": "P951FEA4DE68E13C5"
          },
          "groupBy": [],
          "limit": "1",
          "measurement": "mqtt_consumer",
          "orderByTime": "ASC",
          "policy": "default",
          "refId": "A",
          "resultFormat": "time_series",
          "select": [
            [
              {
                "params": [
                  "engine_speed"
                ],
                "type": "field"
              }
            ]
          ],
          "tags": []
        }
      ],
      "transparent": true,
      "type": "gauge"
    },
    {
      "datasource": {
        "type": "influxdb",
        "uid": "P951FEA4DE68E13C5"
      },
      "gridPos": {
        "h": 2,
        "w": 12,
        "x": 0,
        "y": 11
      },
      "id": 17,
      "options": {
        "content": "<h1 style=\"text-align: center;\">Etat des feux</h1> ",
        "mode": "html"
      },
      "pluginVersion": "9.1.8",
      "type": "text"
    },
    {
      "datasource": {
        "type": "influxdb",
        "uid": "P951FEA4DE68E13C5"
      },
      "gridPos": {
        "h": 2,
        "w": 12,
        "x": 12,
        "y": 11
      },
      "id": 18,
      "options": {
        "content": "<h1 style=\"text-align: center;\">Voyants</h1> ",
        "mode": "html"
      },
      "pluginVersion": "9.1.8",
      "type": "text"
    },
    {
      "datasource": {
        "type": "influxdb",
        "uid": "P951FEA4DE68E13C5"
      },
      "fieldConfig": {
        "defaults": {
          "color": {
            "mode": "thresholds"
          },
          "mappings": [],
          "thresholds": {
            "mode": "absolute",
            "steps": [
              {
                "color": "transparent",
                "value": null
              },
              {
                "color": "text",
                "value": 1
              }
            ]
          }
        },
        "overrides": []
      },
      "gridPos": {
        "h": 9,
        "w": 12,
        "x": 0,
        "y": 13
      },
      "id": 9,
      "options": {
        "colorMode": "value",
        "graphMode": "area",
        "justifyMode": "auto",
        "orientation": "auto",
        "reduceOptions": {
          "calcs": [
            "lastNotNull"
          ],
          "fields": "",
          "values": false
        },
        "textMode": "auto"
      },
      "pluginVersion": "9.1.8",
      "targets": [
        {
          "alias": "Position",
          "datasource": {
            "type": "influxdb",
            "uid": "P951FEA4DE68E13C5"
          },
          "groupBy": [],
          "hide": false,
          "limit": "1",
          "measurement": "mqtt_consumer",
          "orderByTime": "ASC",
          "policy": "default",
          "refId": "A",
          "resultFormat": "time_series",
          "select": [
            [
              {
                "params": [
                  "feu_pos"
                ],
                "type": "field"
              }
            ]
          ],
          "tags": []
        },
        {
          "alias": "Croisement",
          "datasource": {
            "type": "influxdb",
            "uid": "P951FEA4DE68E13C5"
          },
          "groupBy": [],
          "hide": false,
          "limit": "1",
          "measurement": "mqtt_consumer",
          "orderByTime": "ASC",
          "policy": "default",
          "refId": "B",
          "resultFormat": "time_series",
          "select": [
            [
              {
                "params": [
                  "feu_crois"
                ],
                "type": "field"
              }
            ]
          ],
          "tags": []
        },
        {
          "alias": "Route",
          "datasource": {
            "type": "influxdb",
            "uid": "P951FEA4DE68E13C5"
          },
          "groupBy": [],
          "hide": false,
          "limit": "1",
          "measurement": "mqtt_consumer",
          "orderByTime": "ASC",
          "policy": "default",
          "refId": "C",
          "resultFormat": "time_series",
          "select": [
            [
              {
                "params": [
                  "feu_route"
                ],
                "type": "field"
              }
            ]
          ],
          "tags": []
        },
        {
          "alias": "Cligno gauche",
          "datasource": {
            "type": "influxdb",
            "uid": "P951FEA4DE68E13C5"
          },
          "groupBy": [],
          "limit": "1",
          "measurement": "mqtt_consumer",
          "orderByTime": "ASC",
          "policy": "default",
          "refId": "D",
          "resultFormat": "time_series",
          "select": [
            [
              {
                "params": [
                  "feu_clign_g"
                ],
                "type": "field"
              }
            ]
          ],
          "tags": []
        },
        {
          "alias": "Clingo droit",
          "datasource": {
            "type": "influxdb",
            "uid": "P951FEA4DE68E13C5"
          },
          "groupBy": [],
          "hide": false,
          "limit": "1",
          "measurement": "mqtt_consumer",
          "orderByTime": "ASC",
          "policy": "default",
          "refId": "E",
          "resultFormat": "time_series",
          "select": [
            [
              {
                "params": [
                  "voy_ess"
                ],
                "type": "field"
              }
            ]
          ],
          "tags": []
        }
      ],
      "title": "Feux",
      "type": "stat"
    },
    {
      "datasource": {
        "type": "influxdb",
        "uid": "P951FEA4DE68E13C5"
      },
      "fieldConfig": {
        "defaults": {
          "color": {
            "mode": "thresholds"
          },
          "mappings": [],
          "thresholds": {
            "mode": "absolute",
            "steps": [
              {
                "color": "transparent",
                "value": null
              },
              {
                "color": "orange",
                "value": 1
              }
            ]
          }
        },
        "overrides": []
      },
      "gridPos": {
        "h": 9,
        "w": 12,
        "x": 12,
        "y": 13
      },
      "id": 23,
      "options": {
        "colorMode": "value",
        "graphMode": "area",
        "justifyMode": "auto",
        "orientation": "auto",
        "reduceOptions": {
          "calcs": [
            "lastNotNull"
          ],
          "fields": "",
          "values": false
        },
        "textMode": "auto"
      },
      "pluginVersion": "9.1.8",
      "targets": [
        {
          "alias": "Feux de position",
          "datasource": {
            "type": "influxdb",
            "uid": "P951FEA4DE68E13C5"
          },
          "groupBy": [],
          "hide": false,
          "limit": "1",
          "measurement": "mqtt_consumer",
          "orderByTime": "ASC",
          "policy": "default",
          "refId": "A",
          "resultFormat": "time_series",
          "select": [
            [
              {
                "params": [
                  "voy_pos"
                ],
                "type": "field"
              }
            ]
          ],
          "tags": []
        },
        {
          "alias": "Feux de croisement",
          "datasource": {
            "type": "influxdb",
            "uid": "P951FEA4DE68E13C5"
          },
          "groupBy": [],
          "hide": false,
          "limit": "1",
          "measurement": "mqtt_consumer",
          "orderByTime": "ASC",
          "policy": "default",
          "refId": "B",
          "resultFormat": "time_series",
          "select": [
            [
              {
                "params": [
                  "voy_crois"
                ],
                "type": "field"
              }
            ]
          ],
          "tags": []
        },
        {
          "alias": "Feux de route",
          "datasource": {
            "type": "influxdb",
            "uid": "P951FEA4DE68E13C5"
          },
          "groupBy": [],
          "hide": false,
          "limit": "1",
          "measurement": "mqtt_consumer",
          "orderByTime": "ASC",
          "policy": "default",
          "refId": "C",
          "resultFormat": "time_series",
          "select": [
            [
              {
                "params": [
                  "voy_route"
                ],
                "type": "field"
              }
            ]
          ],
          "tags": []
        },
        {
          "alias": "Essence",
          "datasource": {
            "type": "influxdb",
            "uid": "P951FEA4DE68E13C5"
          },
          "groupBy": [],
          "limit": "1",
          "measurement": "mqtt_consumer",
          "orderByTime": "ASC",
          "policy": "default",
          "refId": "D",
          "resultFormat": "time_series",
          "select": [
            [
              {
                "params": [
                  "voy_ess"
                ],
                "type": "field"
              }
            ]
          ],
          "tags": []
        },
        {
          "alias": "Défaut moteur",
          "datasource": {
            "type": "influxdb",
            "uid": "P951FEA4DE68E13C5"
          },
          "groupBy": [],
          "hide": false,
          "limit": "1",
          "measurement": "mqtt_consumer",
          "orderByTime": "ASC",
          "policy": "default",
          "refId": "E",
          "resultFormat": "time_series",
          "select": [
            [
              {
                "params": [
                  "voy_def_mot"
                ],
                "type": "field"
              }
            ]
          ],
          "tags": []
        },
        {
          "alias": "Pression des pneus",
          "datasource": {
            "type": "influxdb",
            "uid": "P951FEA4DE68E13C5"
          },
          "groupBy": [],
          "hide": false,
          "limit": "1",
          "measurement": "mqtt_consumer",
          "orderByTime": "ASC",
          "policy": "default",
          "refId": "F",
          "resultFormat": "time_series",
          "select": [
            [
              {
                "params": [
                  "voy_press_pneu"
                ],
                "type": "field"
              }
            ]
          ],
          "tags": []
        },
        {
          "alias": "Freins",
          "datasource": {
            "type": "influxdb",
            "uid": "P951FEA4DE68E13C5"
          },
          "groupBy": [],
          "hide": false,
          "limit": "1",
          "measurement": "mqtt_consumer",
          "orderByTime": "ASC",
          "policy": "default",
          "refId": "G",
          "resultFormat": "time_series",
          "select": [
            [
              {
                "params": [
                  "voy_freins"
                ],
                "type": "field"
              }
            ]
          ],
          "tags": []
        },
        {
          "alias": "Batterie déchargée",
          "datasource": {
            "type": "influxdb",
            "uid": "P951FEA4DE68E13C5"
          },
          "groupBy": [],
          "hide": false,
          "limit": "1",
          "measurement": "mqtt_consumer",
          "orderByTime": "ASC",
          "policy": "default",
          "refId": "L",
          "resultFormat": "time_series",
          "select": [
            [
              {
                "params": [
                  "voy_bat_dech"
                ],
                "type": "field"
              }
            ]
          ],
          "tags": []
        },
        {
          "alias": "Warnings",
          "datasource": {
            "type": "influxdb",
            "uid": "P951FEA4DE68E13C5"
          },
          "groupBy": [],
          "hide": false,
          "limit": "1",
          "measurement": "mqtt_consumer",
          "orderByTime": "ASC",
          "policy": "default",
          "refId": "M",
          "resultFormat": "time_series",
          "select": [
            [
              {
                "params": [
                  "voy_warn"
                ],
                "type": "field"
              }
            ]
          ],
          "tags": []
        },
        {
          "alias": "Panne batterie",
          "datasource": {
            "type": "influxdb",
            "uid": "P951FEA4DE68E13C5"
          },
          "groupBy": [],
          "hide": false,
          "limit": "1",
          "measurement": "mqtt_consumer",
          "orderByTime": "ASC",
          "policy": "default",
          "refId": "N",
          "resultFormat": "time_series",
          "select": [
            [
              {
                "params": [
                  "voy_pan_bat"
                ],
                "type": "field"
              }
            ]
          ],
          "tags": []
        },
        {
          "alias": "Liquide de refroidissement",
          "datasource": {
            "type": "influxdb",
            "uid": "P951FEA4DE68E13C5"
          },
          "groupBy": [],
          "hide": false,
          "limit": "1",
          "measurement": "mqtt_consumer",
          "orderByTime": "ASC",
          "policy": "default",
          "refId": "O",
          "resultFormat": "time_series",
          "select": [
            [
              {
                "params": [
                  "voy_LDR"
                ],
                "type": "field"
              }
            ]
          ],
          "tags": []
        },
        {
          "alias": "Pression huile moteur",
          "datasource": {
            "type": "influxdb",
            "uid": "P951FEA4DE68E13C5"
          },
          "groupBy": [],
          "hide": false,
          "limit": "1",
          "measurement": "mqtt_consumer",
          "orderByTime": "ASC",
          "policy": "default",
          "refId": "P",
          "resultFormat": "time_series",
          "select": [
            [
              {
                "params": [
                  "voy_press_mot"
                ],
                "type": "field"
              }
            ]
          ],
          "tags": []
        },
        {
          "alias": "Surchauffe huile",
          "datasource": {
            "type": "influxdb",
            "uid": "P951FEA4DE68E13C5"
          },
          "groupBy": [],
          "hide": false,
          "limit": "1",
          "measurement": "mqtt_consumer",
          "orderByTime": "ASC",
          "policy": "default",
          "refId": "Q",
          "resultFormat": "time_series",
          "select": [
            [
              {
                "params": [
                  "voy_sur_huile"
                ],
                "type": "field"
              }
            ]
          ],
          "tags": []
        },
        {
          "alias": "Essuie-glaces",
          "datasource": {
            "type": "influxdb",
            "uid": "P951FEA4DE68E13C5"
          },
          "groupBy": [],
          "hide": false,
          "limit": "1",
          "measurement": "mqtt_consumer",
          "orderByTime": "ASC",
          "policy": "default",
          "refId": "R",
          "resultFormat": "time_series",
          "select": [
            [
              {
                "params": [
                  "voy_ess_glaces"
                ],
                "type": "field"
              }
            ]
          ],
          "tags": []
        },
        {
          "alias": "Lave-glace",
          "datasource": {
            "type": "influxdb",
            "uid": "P951FEA4DE68E13C5"
          },
          "groupBy": [],
          "hide": false,
          "limit": "1",
          "measurement": "mqtt_consumer",
          "orderByTime": "ASC",
          "policy": "default",
          "refId": "S",
          "resultFormat": "time_series",
          "select": [
            [
              {
                "params": [
                  "voy_lav_glaces"
                ],
                "type": "field"
              }
            ]
          ],
          "tags": []
        }
      ],
      "title": "Voyants",
      "type": "stat"
    }
  ],
  "refresh": "500ms",
  "schemaVersion": 37,
  "style": "dark",
  "tags": [],
  "templating": {
    "list": []
  },
  "time": {
    "from": "now-1s",
    "to": "now"
  },
  "timepicker": {
    "refresh_intervals": [
      "500ms",
      "1s",
      "5s",
      "10s",
      "30s",
      "1m",
      "5m",
      "15m",
      "30m",
      "1h",
      "2h",
      "1d"
    ]
  },
  "timezone": "",
  "title": "Tableau de bord",
  "uid": "Ixf95QSVk",
  "version": 1,
  "weekStart": ""
}